<!-- Created with Inkscape (http://www.inkscape.org/) --><svg xmlns:ns1="https://launchpad.net/jessyink" xmlns:dc="http://purl.org/dc/elements/1.1/" xmlns:cc="http://creativecommons.org/ns#" xmlns:rdf="http://www.w3.org/1999/02/22-rdf-syntax-ns#" xmlns:svg="http://www.w3.org/2000/svg" xmlns="http://www.w3.org/2000/svg" xmlns:xlink="http://www.w3.org/1999/xlink" xmlns:sodipodi="http://sodipodi.sourceforge.net/DTD/sodipodi-0.dtd" xmlns:inkscape="http://www.inkscape.org/namespaces/inkscape" width="1000" height="1000" viewBox="0 0 1000 1000" version="1.1" id="svg8" inkscape:version="0.92.4 5da689c313, 2019-01-14" sodipodi:docname="test.svg">
  <defs id="defs33">
    <marker inkscape:stockid="Arrow2Lstart" orient="auto" refY="0.0" refX="0.0" id="Arrow2Lstart" style="overflow:visible" inkscape:isstock="true">
      <path id="path859" style="fill-rule:evenodd;stroke-width:0.625;stroke-linejoin:round;stroke:#000000;stroke-opacity:1;fill:#000000;fill-opacity:1" d="M 8.7185878,4.0337352 L -2.2072895,0.016013256 L 8.7185884,-4.0017078 C 6.9730900,-1.6296469 6.9831476,1.6157441 8.7185878,4.0337352 z " transform="scale(1.1) translate(1,0)"/>
    </marker>
  </defs>
  <sodipodi:namedview pagecolor="#ffffff" bordercolor="#666666" borderopacity="1" objecttolerance="10" gridtolerance="10" guidetolerance="10" inkscape:pageopacity="0" inkscape:pageshadow="2" inkscape:window-width="1920" inkscape:window-height="1017" id="base" showgrid="true" inkscape:snap-text-baseline="true" inkscape:zoom="0.6675088" inkscape:cx="202.7349" inkscape:cy="481.16986" inkscape:window-x="0" inkscape:window-y="0" inkscape:window-maximized="1" inkscape:current-layer="webslicer-layer">
    <inkscape:grid type="xygrid" id="grid27" spacingx="10" spacingy="10" empspacing="10" color="#8080ff" opacity="0.25098039" empcolor="#0000ff" empopacity="0.25098039"/>
  </sodipodi:namedview>
  <g inkscape:groupmode="layer" id="webslicer-layer" inkscape:label="Slide3" style="display:inline">
    <rect height="201.49811" width="248.69112" y="353.92661" x="651.3089" id="slicerect1" style="opacity:0.5;fill:#ff0000;stroke-width:1.11927199">
      <desc id="desc51">format: png
dpi: 96
layout-disposition: bg-el-norepeat
layout-position-anchor: tl</desc>
    </rect>
  <svg:g inkscape:label="QR Code: www.inkscape.org" transform="translate(202.735, 481.17)"><svg:rect x="0" y="0" width="330" height="330" style="fill:white;stroke:none"/><svg:g style="fill:black;stroke:none"><svg:path d="M 289.000000,290.000000 L 281.000000,290.000000 C 280.447715,290.000000 280.000000,289.552285 280.000000,289.000000 L 280.000000,281.000000 C 280.000000,280.447715 280.447715,280.000000 281.000000,280.000000 L 289.000000,280.000000 C 289.552285,280.000000 290.000000,280.447715 290.000000,281.000000 L 290.000000,289.000000 C 290.000000,289.552285 289.552285,290.000000 289.000000,290.000000 z M 259.000000,290.000000 L 251.000000,290.000000 C 250.447715,290.000000 250.000000,289.552285 250.000000,289.000000 L 250.000000,281.000000 C 250.000000,280.447715 249.552285,280.000000 249.000000,280.000000 L 241.000000,280.000000 C 240.447715,280.000000 240.000000,280.447715 240.000000,281.000000 L 240.000000,289.000000 C 240.000000,289.552285 239.552285,290.000000 239.000000,290.000000 L 221.000000,290.000000 C 220.447715,290.000000 220.000000,289.552285 220.000000,289.000000 L 220.000000,281.000000 C 220.000000,280.447715 219.552285,280.000000 219.000000,280.000000 L 211.000000,280.000000 C 210.447715,280.000000 210.000000,280.447715 210.000000,281.000000 L 210.000000,289.000000 C 210.000000,289.552285 209.552285,290.000000 209.000000,290.000000 L 191.000000,290.000000 C 190.447715,290.000000 190.000000,289.552285 190.000000,289.000000 L 190.000000,281.000000 C 190.000000,280.447715 190.447715,280.000000 191.000000,280.000000 L 199.000000,280.000000 C 199.552285,280.000000 200.000000,279.552285 200.000000,279.000000 L 200.000000,271.000000 C 200.000000,270.447715 200.447715,270.000000 201.000000,270.000000 L 209.000000,270.000000 C 209.552285,270.000000 210.000000,269.552285 210.000000,269.000000 L 210.000000,261.000000 C 210.000000,260.447715 209.552285,260.000000 209.000000,260.000000 L 201.000000,260.000000 C 200.447715,260.000000 200.000000,259.552285 200.000000,259.000000 L 200.000000,251.000000 C 200.000000,250.447715 199.552285,250.000000 199.000000,250.000000 L 191.000000,250.000000 C 190.447715,250.000000 190.000000,250.447715 190.000000,251.000000 L 190.000000,259.000000 C 190.000000,259.552285 189.552285,260.000000 189.000000,260.000000 L 171.000000,260.000000 C 170.447715,260.000000 170.000000,259.552285 170.000000,259.000000 L 170.000000,241.000000 C 170.000000,240.447715 169.552285,240.000000 169.000000,240.000000 L 151.000000,240.000000 C 150.447715,240.000000 150.000000,240.447715 150.000000,241.000000 L 150.000000,259.000000 C 150.000000,259.552285 150.447715,260.000000 151.000000,260.000000 L 159.000000,260.000000 C 159.552285,260.000000 160.000000,260.447715 160.000000,261.000000 L 160.000000,269.000000 C 160.000000,269.552285 159.552285,270.000000 159.000000,270.000000 L 151.000000,270.000000 C 150.447715,270.000000 150.000000,269.552285 150.000000,269.000000 L 150.000000,261.000000 C 150.000000,260.447715 149.552285,260.000000 149.000000,260.000000 L 141.000000,260.000000 C 140.447715,260.000000 140.000000,260.447715 140.000000,261.000000 L 140.000000,269.000000 C 140.000000,269.552285 139.552285,270.000000 139.000000,270.000000 L 121.000000,270.000000 C 120.447715,270.000000 120.000000,269.552285 120.000000,269.000000 L 120.000000,261.000000 C 120.000000,260.447715 120.447715,260.000000 121.000000,260.000000 L 139.000000,260.000000 C 139.552285,260.000000 140.000000,259.552285 140.000000,259.000000 L 140.000000,251.000000 C 140.000000,250.447715 139.552285,250.000000 139.000000,250.000000 L 131.000000,250.000000 C 130.447715,250.000000 130.000000,249.552285 130.000000,249.000000 L 130.000000,231.000000 C 130.000000,230.447715 129.552285,230.000000 129.000000,230.000000 L 121.000000,230.000000 C 120.447715,230.000000 120.000000,229.552285 120.000000,229.000000 L 120.000000,201.000000 C 120.000000,200.447715 119.552285,200.000000 119.000000,200.000000 L 111.000000,200.000000 C 110.447715,200.000000 110.000000,200.447715 110.000000,201.000000 L 110.000000,209.000000 C 110.000000,209.552285 109.552285,210.000000 109.000000,210.000000 L 71.000000,210.000000 C 70.447715,210.000000 70.000000,209.552285 70.000000,209.000000 L 70.000000,201.000000 C 70.000000,200.447715 69.552285,200.000000 69.000000,200.000000 L 61.000000,200.000000 C 60.447715,200.000000 60.000000,200.447715 60.000000,201.000000 L 60.000000,209.000000 C 60.000000,209.552285 59.552285,210.000000 59.000000,210.000000 L 41.000000,210.000000 C 40.447715,210.000000 40.000000,209.552285 40.000000,209.000000 L 40.000000,201.000000 C 40.000000,200.447715 40.447715,200.000000 41.000000,200.000000 L 59.000000,200.000000 C 59.552285,200.000000 60.000000,199.552285 60.000000,199.000000 L 60.000000,191.000000 C 60.000000,190.447715 59.552285,190.000000 59.000000,190.000000 L 41.000000,190.000000 C 40.447715,190.000000 40.000000,189.552285 40.000000,189.000000 L 40.000000,181.000000 C 40.000000,180.447715 40.447715,180.000000 41.000000,180.000000 L 49.000000,180.000000 C 49.552285,180.000000 50.000000,179.552285 50.000000,179.000000 L 50.000000,171.000000 C 50.000000,170.447715 49.552285,170.000000 49.000000,170.000000 L 41.000000,170.000000 C 40.447715,170.000000 40.000000,169.552285 40.000000,169.000000 L 40.000000,141.000000 C 40.000000,140.447715 40.447715,140.000000 41.000000,140.000000 L 49.000000,140.000000 C 49.552285,140.000000 50.000000,139.552285 50.000000,139.000000 L 50.000000,131.000000 C 50.000000,130.447715 49.552285,130.000000 49.000000,130.000000 L 41.000000,130.000000 C 40.447715,130.000000 40.000000,129.552285 40.000000,129.000000 L 40.000000,121.000000 C 40.000000,120.447715 40.447715,120.000000 41.000000,120.000000 L 49.000000,120.000000 C 49.552285,120.000000 50.000000,120.447715 50.000000,121.000000 L 50.000000,129.000000 C 50.000000,129.552285 50.447715,130.000000 51.000000,130.000000 L 59.000000,130.000000 C 59.552285,130.000000 60.000000,129.552285 60.000000,129.000000 L 60.000000,121.000000 C 60.000000,120.447715 60.447715,120.000000 61.000000,120.000000 L 69.000000,120.000000 C 69.552285,120.000000 70.000000,120.447715 70.000000,121.000000 L 70.000000,139.000000 C 70.000000,139.552285 70.447715,140.000000 71.000000,140.000000 L 79.000000,140.000000 C 79.552285,140.000000 80.000000,139.552285 80.000000,139.000000 L 80.000000,131.000000 C 80.000000,130.447715 80.447715,130.000000 81.000000,130.000000 L 89.000000,130.000000 C 89.552285,130.000000 90.000000,130.447715 90.000000,131.000000 L 90.000000,139.000000 C 90.000000,139.552285 90.447715,140.000000 91.000000,140.000000 L 129.000000,140.000000 C 129.552285,140.000000 130.000000,140.447715 130.000000,141.000000 L 130.000000,149.000000 C 130.000000,149.552285 130.447715,150.000000 131.000000,150.000000 L 139.000000,150.000000 C 139.552285,150.000000 140.000000,149.552285 140.000000,149.000000 L 140.000000,141.000000 C 140.000000,140.447715 140.447715,140.000000 141.000000,140.000000 L 189.000000,140.000000 C 189.552285,140.000000 190.000000,139.552285 190.000000,139.000000 L 190.000000,111.000000 C 190.000000,110.447715 189.552285,110.000000 189.000000,110.000000 L 181.000000,110.000000 C 180.447715,110.000000 180.000000,110.447715 180.000000,111.000000 L 180.000000,129.000000 C 180.000000,129.552285 179.552285,130.000000 179.000000,130.000000 L 171.000000,130.000000 C 170.447715,130.000000 170.000000,129.552285 170.000000,129.000000 L 170.000000,111.000000 C 170.000000,110.447715 169.552285,110.000000 169.000000,110.000000 L 161.000000,110.000000 C 160.447715,110.000000 160.000000,110.447715 160.000000,111.000000 L 160.000000,119.000000 C 160.000000,119.552285 159.552285,120.000000 159.000000,120.000000 L 151.000000,120.000000 C 150.447715,120.000000 150.000000,119.552285 150.000000,119.000000 L 150.000000,111.000000 C 150.000000,110.447715 149.552285,110.000000 149.000000,110.000000 L 141.000000,110.000000 C 140.447715,110.000000 140.000000,110.447715 140.000000,111.000000 L 140.000000,129.000000 C 140.000000,129.552285 139.552285,130.000000 139.000000,130.000000 L 131.000000,130.000000 C 130.447715,130.000000 130.000000,129.552285 130.000000,129.000000 L 130.000000,111.000000 C 130.000000,110.447715 129.552285,110.000000 129.000000,110.000000 L 121.000000,110.000000 C 120.447715,110.000000 120.000000,109.552285 120.000000,109.000000 L 120.000000,91.000000 C 120.000000,90.447715 120.447715,90.000000 121.000000,90.000000 L 129.000000,90.000000 C 129.552285,90.000000 130.000000,89.552285 130.000000,89.000000 L 130.000000,81.000000 C 130.000000,80.447715 130.447715,80.000000 131.000000,80.000000 L 139.000000,80.000000 C 139.552285,80.000000 140.000000,80.447715 140.000000,81.000000 L 140.000000,89.000000 C 140.000000,89.552285 139.552285,90.000000 139.000000,90.000000 L 131.000000,90.000000 C 130.447715,90.000000 130.000000,90.447715 130.000000,91.000000 L 130.000000,109.000000 C 130.000000,109.552285 130.447715,110.000000 131.000000,110.000000 L 139.000000,110.000000 C 139.552285,110.000000 140.000000,109.552285 140.000000,109.000000 L 140.000000,101.000000 C 140.000000,100.447715 140.447715,100.000000 141.000000,100.000000 L 149.000000,100.000000 C 149.552285,100.000000 150.000000,100.447715 150.000000,101.000000 L 150.000000,109.000000 C 150.000000,109.552285 150.447715,110.000000 151.000000,110.000000 L 159.000000,110.000000 C 159.552285,110.000000 160.000000,109.552285 160.000000,109.000000 L 160.000000,91.000000 C 160.000000,90.447715 160.447715,90.000000 161.000000,90.000000 L 189.000000,90.000000 C 189.552285,90.000000 190.000000,89.552285 190.000000,89.000000 L 190.000000,71.000000 C 190.000000,70.447715 190.447715,70.000000 191.000000,70.000000 L 199.000000,70.000000 C 199.552285,70.000000 200.000000,70.447715 200.000000,71.000000 L 200.000000,79.000000 C 200.000000,79.552285 200.447715,80.000000 201.000000,80.000000 L 209.000000,80.000000 C 209.552285,80.000000 210.000000,80.447715 210.000000,81.000000 L 210.000000,139.000000 C 210.000000,139.552285 210.447715,140.000000 211.000000,140.000000 L 219.000000,140.000000 C 219.552285,140.000000 220.000000,139.552285 220.000000,139.000000 L 220.000000,131.000000 C 220.000000,130.447715 220.447715,130.000000 221.000000,130.000000 L 229.000000,130.000000 C 229.552285,130.000000 230.000000,129.552285 230.000000,129.000000 L 230.000000,121.000000 C 230.000000,120.447715 230.447715,120.000000 231.000000,120.000000 L 239.000000,120.000000 C 239.552285,120.000000 240.000000,120.447715 240.000000,121.000000 L 240.000000,139.000000 C 240.000000,139.552285 239.552285,140.000000 239.000000,140.000000 L 231.000000,140.000000 C 230.447715,140.000000 230.000000,140.447715 230.000000,141.000000 L 230.000000,149.000000 C 230.000000,149.552285 229.552285,150.000000 229.000000,150.000000 L 221.000000,150.000000 C 220.447715,150.000000 220.000000,150.447715 220.000000,151.000000 L 220.000000,159.000000 C 220.000000,159.552285 220.447715,160.000000 221.000000,160.000000 L 239.000000,160.000000 C 239.552285,160.000000 240.000000,160.447715 240.000000,161.000000 L 240.000000,179.000000 C 240.000000,179.552285 239.552285,180.000000 239.000000,180.000000 L 231.000000,180.000000 C 230.447715,180.000000 230.000000,180.447715 230.000000,181.000000 L 230.000000,189.000000 C 230.000000,189.552285 229.552285,190.000000 229.000000,190.000000 L 211.000000,190.000000 C 210.447715,190.000000 210.000000,190.447715 210.000000,191.000000 L 210.000000,199.000000 C 210.000000,199.552285 210.447715,200.000000 211.000000,200.000000 L 249.000000,200.000000 C 249.552285,200.000000 250.000000,199.552285 250.000000,199.000000 L 250.000000,161.000000 C 250.000000,160.447715 250.447715,160.000000 251.000000,160.000000 L 259.000000,160.000000 C 259.552285,160.000000 260.000000,160.447715 260.000000,161.000000 L 260.000000,169.000000 C 260.000000,169.552285 260.447715,170.000000 261.000000,170.000000 L 279.000000,170.000000 C 279.552285,170.000000 280.000000,169.552285 280.000000,169.000000 L 280.000000,161.000000 C 280.000000,160.447715 279.552285,160.000000 279.000000,160.000000 L 271.000000,160.000000 C 270.447715,160.000000 270.000000,159.552285 270.000000,159.000000 L 270.000000,151.000000 C 270.000000,150.447715 270.447715,150.000000 271.000000,150.000000 L 279.000000,150.000000 C 279.552285,150.000000 280.000000,149.552285 280.000000,149.000000 L 280.000000,141.000000 C 280.000000,140.447715 279.552285,140.000000 279.000000,140.000000 L 271.000000,140.000000 C 270.447715,140.000000 270.000000,139.552285 270.000000,139.000000 L 270.000000,131.000000 C 270.000000,130.447715 269.552285,130.000000 269.000000,130.000000 L 261.000000,130.000000 C 260.447715,130.000000 260.000000,130.447715 260.000000,131.000000 L 260.000000,139.000000 C 260.000000,139.552285 259.552285,140.000000 259.000000,140.000000 L 251.000000,140.000000 C 250.447715,140.000000 250.000000,139.552285 250.000000,139.000000 L 250.000000,131.000000 C 250.000000,130.447715 250.447715,130.000000 251.000000,130.000000 L 259.000000,130.000000 C 259.552285,130.000000 260.000000,129.552285 260.000000,129.000000 L 260.000000,121.000000 C 260.000000,120.447715 260.447715,120.000000 261.000000,120.000000 L 269.000000,120.000000 C 269.552285,120.000000 270.000000,120.447715 270.000000,121.000000 L 270.000000,129.000000 C 270.000000,129.552285 270.447715,130.000000 271.000000,130.000000 L 279.000000,130.000000 C 279.552285,130.000000 280.000000,129.552285 280.000000,129.000000 L 280.000000,121.000000 C 280.000000,120.447715 280.447715,120.000000 281.000000,120.000000 L 289.000000,120.000000 C 289.552285,120.000000 290.000000,120.447715 290.000000,121.000000 L 290.000000,229.000000 C 290.000000,229.552285 289.552285,230.000000 289.000000,230.000000 L 281.000000,230.000000 C 280.447715,230.000000 280.000000,229.552285 280.000000,229.000000 L 280.000000,221.000000 C 280.000000,220.447715 279.552285,220.000000 279.000000,220.000000 L 271.000000,220.000000 C 270.447715,220.000000 270.000000,220.447715 270.000000,221.000000 L 270.000000,229.000000 C 270.000000,229.552285 269.552285,230.000000 269.000000,230.000000 L 261.000000,230.000000 C 260.447715,230.000000 260.000000,230.447715 260.000000,231.000000 L 260.000000,249.000000 C 260.000000,249.552285 260.447715,250.000000 261.000000,250.000000 L 269.000000,250.000000 C 269.552285,250.000000 270.000000,249.552285 270.000000,249.000000 L 270.000000,241.000000 C 270.000000,240.447715 270.447715,240.000000 271.000000,240.000000 L 289.000000,240.000000 C 289.552285,240.000000 290.000000,240.447715 290.000000,241.000000 L 290.000000,249.000000 C 290.000000,249.552285 289.552285,250.000000 289.000000,250.000000 L 281.000000,250.000000 C 280.447715,250.000000 280.000000,250.447715 280.000000,251.000000 L 280.000000,259.000000 C 280.000000,259.552285 280.447715,260.000000 281.000000,260.000000 L 289.000000,260.000000 C 289.552285,260.000000 290.000000,260.447715 290.000000,261.000000 L 290.000000,269.000000 C 290.000000,269.552285 289.552285,270.000000 289.000000,270.000000 L 271.000000,270.000000 C 270.447715,270.000000 270.000000,269.552285 270.000000,269.000000 L 270.000000,261.000000 C 270.000000,260.447715 269.552285,260.000000 269.000000,260.000000 L 261.000000,260.000000 C 260.447715,260.000000 260.000000,260.447715 260.000000,261.000000 L 260.000000,289.000000 C 260.000000,289.552285 259.552285,290.000000 259.000000,290.000000 z M 179.000000,290.000000 L 151.000000,290.000000 C 150.447715,290.000000 150.000000,289.552285 150.000000,289.000000 L 150.000000,281.000000 C 150.000000,280.447715 150.447715,280.000000 151.000000,280.000000 L 169.000000,280.000000 C 169.552285,280.000000 170.000000,279.552285 170.000000,279.000000 L 170.000000,271.000000 C 170.000000,270.447715 170.447715,270.000000 171.000000,270.000000 L 179.000000,270.000000 C 179.552285,270.000000 180.000000,270.447715 180.000000,271.000000 L 180.000000,289.000000 C 180.000000,289.552285 179.552285,290.000000 179.000000,290.000000 z M 129.000000,290.000000 L 121.000000,290.000000 C 120.447715,290.000000 120.000000,289.552285 120.000000,289.000000 L 120.000000,281.000000 C 120.000000,280.447715 120.447715,280.000000 121.000000,280.000000 L 129.000000,280.000000 C 129.552285,280.000000 130.000000,280.447715 130.000000,281.000000 L 130.000000,289.000000 C 130.000000,289.552285 129.552285,290.000000 129.000000,290.000000 z M 109.000000,290.000000 L 41.000000,290.000000 C 40.447715,290.000000 40.000000,289.552285 40.000000,289.000000 L 40.000000,221.000000 C 40.000000,220.447715 40.447715,220.000000 41.000000,220.000000 L 109.000000,220.000000 C 109.552285,220.000000 110.000000,220.447715 110.000000,221.000000 L 110.000000,289.000000 C 110.000000,289.552285 109.552285,290.000000 109.000000,290.000000 z M 230.000000,279.000000 L 230.000000,271.000000 C 230.000000,270.447715 230.447715,270.000000 231.000000,270.000000 L 239.000000,270.000000 C 239.552285,270.000000 240.000000,269.552285 240.000000,269.000000 L 240.000000,261.000000 C 240.000000,260.447715 239.552285,260.000000 239.000000,260.000000 L 231.000000,260.000000 C 230.447715,260.000000 230.000000,259.552285 230.000000,259.000000 L 230.000000,251.000000 C 230.000000,250.447715 229.552285,250.000000 229.000000,250.000000 L 221.000000,250.000000 C 220.447715,250.000000 220.000000,250.447715 220.000000,251.000000 L 220.000000,279.000000 C 220.000000,279.552285 220.447715,280.000000 221.000000,280.000000 L 229.000000,280.000000 C 229.552285,280.000000 230.000000,279.552285 230.000000,279.000000 z M 100.000000,279.000000 L 100.000000,231.000000 C 100.000000,230.447715 99.552285,230.000000 99.000000,230.000000 L 51.000000,230.000000 C 50.447715,230.000000 50.000000,230.447715 50.000000,231.000000 L 50.000000,279.000000 C 50.000000,279.552285 50.447715,280.000000 51.000000,280.000000 L 99.000000,280.000000 C 99.552285,280.000000 100.000000,279.552285 100.000000,279.000000 z M 89.000000,270.000000 L 61.000000,270.000000 C 60.447715,270.000000 60.000000,269.552285 60.000000,269.000000 L 60.000000,241.000000 C 60.000000,240.447715 60.447715,240.000000 61.000000,240.000000 L 89.000000,240.000000 C 89.552285,240.000000 90.000000,240.447715 90.000000,241.000000 L 90.000000,269.000000 C 90.000000,269.552285 89.552285,270.000000 89.000000,270.000000 z M 240.000000,239.000000 L 240.000000,211.000000 C 240.000000,210.447715 239.552285,210.000000 239.000000,210.000000 L 211.000000,210.000000 C 210.447715,210.000000 210.000000,210.447715 210.000000,211.000000 L 210.000000,239.000000 C 210.000000,239.552285 210.447715,240.000000 211.000000,240.000000 L 239.000000,240.000000 C 239.552285,240.000000 240.000000,239.552285 240.000000,239.000000 z M 180.000000,239.000000 L 180.000000,231.000000 C 180.000000,230.447715 179.552285,230.000000 179.000000,230.000000 L 171.000000,230.000000 C 170.447715,230.000000 170.000000,230.447715 170.000000,231.000000 L 170.000000,239.000000 C 170.000000,239.552285 170.447715,240.000000 171.000000,240.000000 L 179.000000,240.000000 C 179.552285,240.000000 180.000000,239.552285 180.000000,239.000000 z M 150.000000,239.000000 L 150.000000,231.000000 C 150.000000,230.447715 149.552285,230.000000 149.000000,230.000000 L 141.000000,230.000000 C 140.447715,230.000000 140.000000,230.447715 140.000000,231.000000 L 140.000000,239.000000 C 140.000000,239.552285 140.447715,240.000000 141.000000,240.000000 L 149.000000,240.000000 C 149.552285,240.000000 150.000000,239.552285 150.000000,239.000000 z M 260.000000,229.000000 L 260.000000,211.000000 C 260.000000,210.447715 259.552285,210.000000 259.000000,210.000000 L 251.000000,210.000000 C 250.447715,210.000000 250.000000,210.447715 250.000000,211.000000 L 250.000000,229.000000 C 250.000000,229.552285 250.447715,230.000000 251.000000,230.000000 L 259.000000,230.000000 C 259.552285,230.000000 260.000000,229.552285 260.000000,229.000000 z M 229.000000,230.000000 L 221.000000,230.000000 C 220.447715,230.000000 220.000000,229.552285 220.000000,229.000000 L 220.000000,221.000000 C 220.000000,220.447715 220.447715,220.000000 221.000000,220.000000 L 229.000000,220.000000 C 229.552285,220.000000 230.000000,220.447715 230.000000,221.000000 L 230.000000,229.000000 C 230.000000,229.552285 229.552285,230.000000 229.000000,230.000000 z M 200.000000,229.000000 L 200.000000,201.000000 C 200.000000,200.447715 199.552285,200.000000 199.000000,200.000000 L 191.000000,200.000000 C 190.447715,200.000000 190.000000,199.552285 190.000000,199.000000 L 190.000000,181.000000 C 190.000000,180.447715 189.552285,180.000000 189.000000,180.000000 L 171.000000,180.000000 C 170.447715,180.000000 170.000000,179.552285 170.000000,179.000000 L 170.000000,161.000000 C 170.000000,160.447715 170.447715,160.000000 171.000000,160.000000 L 179.000000,160.000000 C 179.552285,160.000000 180.000000,159.552285 180.000000,159.000000 L 180.000000,151.000000 C 180.000000,150.447715 179.552285,150.000000 179.000000,150.000000 L 141.000000,150.000000 C 140.447715,150.000000 140.000000,150.447715 140.000000,151.000000 L 140.000000,169.000000 C 140.000000,169.552285 140.447715,170.000000 141.000000,170.000000 L 149.000000,170.000000 C 149.552285,170.000000 150.000000,169.552285 150.000000,169.000000 L 150.000000,161.000000 C 150.000000,160.447715 150.447715,160.000000 151.000000,160.000000 L 159.000000,160.000000 C 159.552285,160.000000 160.000000,160.447715 160.000000,161.000000 L 160.000000,169.000000 C 160.000000,169.552285 159.552285,170.000000 159.000000,170.000000 L 151.000000,170.000000 C 150.447715,170.000000 150.000000,170.447715 150.000000,171.000000 L 150.000000,179.000000 C 150.000000,179.552285 150.447715,180.000000 151.000000,180.000000 L 159.000000,180.000000 C 159.552285,180.000000 160.000000,180.447715 160.000000,181.000000 L 160.000000,189.000000 C 160.000000,189.552285 159.552285,190.000000 159.000000,190.000000 L 141.000000,190.000000 C 140.447715,190.000000 140.000000,190.447715 140.000000,191.000000 L 140.000000,199.000000 C 140.000000,199.552285 139.552285,200.000000 139.000000,200.000000 L 131.000000,200.000000 C 130.447715,200.000000 130.000000,200.447715 130.000000,201.000000 L 130.000000,209.000000 C 130.000000,209.552285 130.447715,210.000000 131.000000,210.000000 L 149.000000,210.000000 C 149.552285,210.000000 150.000000,209.552285 150.000000,209.000000 L 150.000000,201.000000 C 150.000000,200.447715 150.447715,200.000000 151.000000,200.000000 L 169.000000,200.000000 C 169.552285,200.000000 170.000000,199.552285 170.000000,199.000000 L 170.000000,191.000000 C 170.000000,190.447715 170.447715,190.000000 171.000000,190.000000 L 179.000000,190.000000 C 179.552285,190.000000 180.000000,190.447715 180.000000,191.000000 L 180.000000,209.000000 C 180.000000,209.552285 179.552285,210.000000 179.000000,210.000000 L 171.000000,210.000000 C 170.447715,210.000000 170.000000,210.447715 170.000000,211.000000 L 170.000000,219.000000 C 170.000000,219.552285 170.447715,220.000000 171.000000,220.000000 L 189.000000,220.000000 C 189.552285,220.000000 190.000000,220.447715 190.000000,221.000000 L 190.000000,229.000000 C 190.000000,229.552285 190.447715,230.000000 191.000000,230.000000 L 199.000000,230.000000 C 199.552285,230.000000 200.000000,229.552285 200.000000,229.000000 z M 160.000000,229.000000 L 160.000000,211.000000 C 160.000000,210.447715 159.552285,210.000000 159.000000,210.000000 L 151.000000,210.000000 C 150.447715,210.000000 150.000000,210.447715 150.000000,211.000000 L 150.000000,229.000000 C 150.000000,229.552285 150.447715,230.000000 151.000000,230.000000 L 159.000000,230.000000 C 159.552285,230.000000 160.000000,229.552285 160.000000,229.000000 z M 280.000000,209.000000 L 280.000000,201.000000 C 280.000000,200.447715 279.552285,200.000000 279.000000,200.000000 L 271.000000,200.000000 C 270.447715,200.000000 270.000000,199.552285 270.000000,199.000000 L 270.000000,191.000000 C 270.000000,190.447715 270.447715,190.000000 271.000000,190.000000 L 279.000000,190.000000 C 279.552285,190.000000 280.000000,189.552285 280.000000,189.000000 L 280.000000,181.000000 C 280.000000,180.447715 279.552285,180.000000 279.000000,180.000000 L 261.000000,180.000000 C 260.447715,180.000000 260.000000,180.447715 260.000000,181.000000 L 260.000000,209.000000 C 260.000000,209.552285 260.447715,210.000000 261.000000,210.000000 L 279.000000,210.000000 C 279.552285,210.000000 280.000000,209.552285 280.000000,209.000000 z M 130.000000,199.000000 L 130.000000,181.000000 C 130.000000,180.447715 129.552285,180.000000 129.000000,180.000000 L 111.000000,180.000000 C 110.447715,180.000000 110.000000,180.447715 110.000000,181.000000 L 110.000000,189.000000 C 110.000000,189.552285 110.447715,190.000000 111.000000,190.000000 L 119.000000,190.000000 C 119.552285,190.000000 120.000000,190.447715 120.000000,191.000000 L 120.000000,199.000000 C 120.000000,199.552285 120.447715,200.000000 121.000000,200.000000 L 129.000000,200.000000 C 129.552285,200.000000 130.000000,199.552285 130.000000,199.000000 z M 110.000000,199.000000 L 110.000000,191.000000 C 110.000000,190.447715 109.552285,190.000000 109.000000,190.000000 L 101.000000,190.000000 C 100.447715,190.000000 100.000000,190.447715 100.000000,191.000000 L 100.000000,199.000000 C 100.000000,199.552285 100.447715,200.000000 101.000000,200.000000 L 109.000000,200.000000 C 109.552285,200.000000 110.000000,199.552285 110.000000,199.000000 z M 90.000000,199.000000 L 90.000000,191.000000 C 90.000000,190.447715 89.552285,190.000000 89.000000,190.000000 L 71.000000,190.000000 C 70.447715,190.000000 70.000000,190.447715 70.000000,191.000000 L 70.000000,199.000000 C 70.000000,199.552285 70.447715,200.000000 71.000000,200.000000 L 89.000000,200.000000 C 89.552285,200.000000 90.000000,199.552285 90.000000,199.000000 z M 210.000000,189.000000 L 210.000000,181.000000 C 210.000000,180.447715 209.552285,180.000000 209.000000,180.000000 L 201.000000,180.000000 C 200.447715,180.000000 200.000000,180.447715 200.000000,181.000000 L 200.000000,189.000000 C 200.000000,189.552285 200.447715,190.000000 201.000000,190.000000 L 209.000000,190.000000 C 209.552285,190.000000 210.000000,189.552285 210.000000,189.000000 z M 70.000000,189.000000 L 70.000000,181.000000 C 70.000000,180.447715 70.447715,180.000000 71.000000,180.000000 L 109.000000,180.000000 C 109.552285,180.000000 110.000000,179.552285 110.000000,179.000000 L 110.000000,171.000000 C 110.000000,170.447715 109.552285,170.000000 109.000000,170.000000 L 71.000000,170.000000 C 70.447715,170.000000 70.000000,169.552285 70.000000,169.000000 L 70.000000,161.000000 C 70.000000,160.447715 70.447715,160.000000 71.000000,160.000000 L 79.000000,160.000000 C 79.552285,160.000000 80.000000,159.552285 80.000000,159.000000 L 80.000000,151.000000 C 80.000000,150.447715 79.552285,150.000000 79.000000,150.000000 L 61.000000,150.000000 C 60.447715,150.000000 60.000000,150.447715 60.000000,151.000000 L 60.000000,189.000000 C 60.000000,189.552285 60.447715,190.000000 61.000000,190.000000 L 69.000000,190.000000 C 69.552285,190.000000 70.000000,189.552285 70.000000,189.000000 z M 140.000000,179.000000 L 140.000000,171.000000 C 140.000000,170.447715 139.552285,170.000000 139.000000,170.000000 L 131.000000,170.000000 C 130.447715,170.000000 130.000000,170.447715 130.000000,171.000000 L 130.000000,179.000000 C 130.000000,179.552285 130.447715,180.000000 131.000000,180.000000 L 139.000000,180.000000 C 139.552285,180.000000 140.000000,179.552285 140.000000,179.000000 z M 220.000000,169.000000 L 220.000000,161.000000 C 220.000000,160.447715 219.552285,160.000000 219.000000,160.000000 L 211.000000,160.000000 C 210.447715,160.000000 210.000000,159.552285 210.000000,159.000000 L 210.000000,151.000000 C 210.000000,150.447715 209.552285,150.000000 209.000000,150.000000 L 201.000000,150.000000 C 200.447715,150.000000 200.000000,150.447715 200.000000,151.000000 L 200.000000,169.000000 C 200.000000,169.552285 200.447715,170.000000 201.000000,170.000000 L 219.000000,170.000000 C 219.552285,170.000000 220.000000,169.552285 220.000000,169.000000 z M 130.000000,169.000000 L 130.000000,151.000000 C 130.000000,150.447715 129.552285,150.000000 129.000000,150.000000 L 91.000000,150.000000 C 90.447715,150.000000 90.000000,150.447715 90.000000,151.000000 L 90.000000,159.000000 C 90.000000,159.552285 90.447715,160.000000 91.000000,160.000000 L 119.000000,160.000000 C 119.552285,160.000000 120.000000,160.447715 120.000000,161.000000 L 120.000000,169.000000 C 120.000000,169.552285 120.447715,170.000000 121.000000,170.000000 L 129.000000,170.000000 C 129.552285,170.000000 130.000000,169.552285 130.000000,169.000000 z M 90.000000,149.000000 L 90.000000,141.000000 C 90.000000,140.447715 89.552285,140.000000 89.000000,140.000000 L 81.000000,140.000000 C 80.447715,140.000000 80.000000,140.447715 80.000000,141.000000 L 80.000000,149.000000 C 80.000000,149.552285 80.447715,150.000000 81.000000,150.000000 L 89.000000,150.000000 C 89.552285,150.000000 90.000000,149.552285 90.000000,149.000000 z M 119.000000,130.000000 L 101.000000,130.000000 C 100.447715,130.000000 100.000000,129.552285 100.000000,129.000000 L 100.000000,121.000000 C 100.000000,120.447715 100.447715,120.000000 101.000000,120.000000 L 119.000000,120.000000 C 119.552285,120.000000 120.000000,120.447715 120.000000,121.000000 L 120.000000,129.000000 C 120.000000,129.552285 119.552285,130.000000 119.000000,130.000000 z M 289.000000,110.000000 L 221.000000,110.000000 C 220.447715,110.000000 220.000000,109.552285 220.000000,109.000000 L 220.000000,41.000000 C 220.000000,40.447715 220.447715,40.000000 221.000000,40.000000 L 289.000000,40.000000 C 289.552285,40.000000 290.000000,40.447715 290.000000,41.000000 L 290.000000,109.000000 C 290.000000,109.552285 289.552285,110.000000 289.000000,110.000000 z M 200.000000,109.000000 L 200.000000,91.000000 C 200.000000,90.447715 199.552285,90.000000 199.000000,90.000000 L 191.000000,90.000000 C 190.447715,90.000000 190.000000,90.447715 190.000000,91.000000 L 190.000000,109.000000 C 190.000000,109.552285 190.447715,110.000000 191.000000,110.000000 L 199.000000,110.000000 C 199.552285,110.000000 200.000000,109.552285 200.000000,109.000000 z M 180.000000,109.000000 L 180.000000,101.000000 C 180.000000,100.447715 179.552285,100.000000 179.000000,100.000000 L 171.000000,100.000000 C 170.447715,100.000000 170.000000,100.447715 170.000000,101.000000 L 170.000000,109.000000 C 170.000000,109.552285 170.447715,110.000000 171.000000,110.000000 L 179.000000,110.000000 C 179.552285,110.000000 180.000000,109.552285 180.000000,109.000000 z M 109.000000,110.000000 L 41.000000,110.000000 C 40.447715,110.000000 40.000000,109.552285 40.000000,109.000000 L 40.000000,41.000000 C 40.000000,40.447715 40.447715,40.000000 41.000000,40.000000 L 109.000000,40.000000 C 109.552285,40.000000 110.000000,40.447715 110.000000,41.000000 L 110.000000,109.000000 C 110.000000,109.552285 109.552285,110.000000 109.000000,110.000000 z M 280.000000,99.000000 L 280.000000,51.000000 C 280.000000,50.447715 279.552285,50.000000 279.000000,50.000000 L 231.000000,50.000000 C 230.447715,50.000000 230.000000,50.447715 230.000000,51.000000 L 230.000000,99.000000 C 230.000000,99.552285 230.447715,100.000000 231.000000,100.000000 L 279.000000,100.000000 C 279.552285,100.000000 280.000000,99.552285 280.000000,99.000000 z M 100.000000,99.000000 L 100.000000,51.000000 C 100.000000,50.447715 99.552285,50.000000 99.000000,50.000000 L 51.000000,50.000000 C 50.447715,50.000000 50.000000,50.447715 50.000000,51.000000 L 50.000000,99.000000 C 50.000000,99.552285 50.447715,100.000000 51.000000,100.000000 L 99.000000,100.000000 C 99.552285,100.000000 100.000000,99.552285 100.000000,99.000000 z M 269.000000,90.000000 L 241.000000,90.000000 C 240.447715,90.000000 240.000000,89.552285 240.000000,89.000000 L 240.000000,61.000000 C 240.000000,60.447715 240.447715,60.000000 241.000000,60.000000 L 269.000000,60.000000 C 269.552285,60.000000 270.000000,60.447715 270.000000,61.000000 L 270.000000,89.000000 C 270.000000,89.552285 269.552285,90.000000 269.000000,90.000000 z M 89.000000,90.000000 L 61.000000,90.000000 C 60.447715,90.000000 60.000000,89.552285 60.000000,89.000000 L 60.000000,61.000000 C 60.000000,60.447715 60.447715,60.000000 61.000000,60.000000 L 89.000000,60.000000 C 89.552285,60.000000 90.000000,60.447715 90.000000,61.000000 L 90.000000,89.000000 C 90.000000,89.552285 89.552285,90.000000 89.000000,90.000000 z M 179.000000,70.000000 L 171.000000,70.000000 C 170.447715,70.000000 170.000000,69.552285 170.000000,69.000000 L 170.000000,61.000000 C 170.000000,60.447715 169.552285,60.000000 169.000000,60.000000 L 161.000000,60.000000 C 160.447715,60.000000 160.000000,60.447715 160.000000,61.000000 L 160.000000,69.000000 C 160.000000,69.552285 159.552285,70.000000 159.000000,70.000000 L 151.000000,70.000000 C 150.447715,70.000000 150.000000,69.552285 150.000000,69.000000 L 150.000000,61.000000 C 150.000000,60.447715 149.552285,60.000000 149.000000,60.000000 L 141.000000,60.000000 C 140.447715,60.000000 140.000000,59.552285 140.000000,59.000000 L 140.000000,41.000000 C 140.000000,40.447715 140.447715,40.000000 141.000000,40.000000 L 149.000000,40.000000 C 149.552285,40.000000 150.000000,40.447715 150.000000,41.000000 L 150.000000,59.000000 C 150.000000,59.552285 150.447715,60.000000 151.000000,60.000000 L 159.000000,60.000000 C 159.552285,60.000000 160.000000,59.552285 160.000000,59.000000 L 160.000000,51.000000 C 160.000000,50.447715 160.447715,50.000000 161.000000,50.000000 L 169.000000,50.000000 C 169.552285,50.000000 170.000000,49.552285 170.000000,49.000000 L 170.000000,41.000000 C 170.000000,40.447715 170.447715,40.000000 171.000000,40.000000 L 199.000000,40.000000 C 199.552285,40.000000 200.000000,40.447715 200.000000,41.000000 L 200.000000,59.000000 C 200.000000,59.552285 199.552285,60.000000 199.000000,60.000000 L 191.000000,60.000000 C 190.447715,60.000000 190.000000,59.552285 190.000000,59.000000 L 190.000000,51.000000 C 190.000000,50.447715 189.552285,50.000000 189.000000,50.000000 L 171.000000,50.000000 C 170.447715,50.000000 170.000000,50.447715 170.000000,51.000000 L 170.000000,59.000000 C 170.000000,59.552285 170.447715,60.000000 171.000000,60.000000 L 179.000000,60.000000 C 179.552285,60.000000 180.000000,60.447715 180.000000,61.000000 L 180.000000,69.000000 C 180.000000,69.552285 179.552285,70.000000 179.000000,70.000000 z M 129.000000,70.000000 L 121.000000,70.000000 C 120.447715,70.000000 120.000000,69.552285 120.000000,69.000000 L 120.000000,61.000000 C 120.000000,60.447715 120.447715,60.000000 121.000000,60.000000 L 129.000000,60.000000 C 129.552285,60.000000 130.000000,60.447715 130.000000,61.000000 L 130.000000,69.000000 C 130.000000,69.552285 129.552285,70.000000 129.000000,70.000000 z M 129.000000,50.000000 L 121.000000,50.000000 C 120.447715,50.000000 120.000000,49.552285 120.000000,49.000000 L 120.000000,41.000000 C 120.000000,40.447715 120.447715,40.000000 121.000000,40.000000 L 129.000000,40.000000 C 129.552285,40.000000 130.000000,40.447715 130.000000,41.000000 L 130.000000,49.000000 C 130.000000,49.552285 129.552285,50.000000 129.000000,50.000000 z "/></svg:g></svg:g></g>
  <g inkscape:groupmode="layer" id="layer2" inkscape:label="Slide2" style="display:inline">
    <circle style="display:inline;fill:#000080;stroke:none" id="c1" cx="150" cy="450" r="50" inkscape:label="#path3736"/>
    <ellipse style="display:inline;fill:none;stroke:#ff0000;stroke-width:16" id="c2" cx="400" cy="450" rx="100" ry="50" inkscape:label="#path3738"/>
    <path style="display:inline;fill:#ffff00;stroke:#008000;stroke-width:16" id="c3" sodipodi:type="arc" sodipodi:cx="700" sodipodi:cy="450" sodipodi:rx="100" sodipodi:ry="50" sodipodi:start="0.59013865" sodipodi:end="5.6484511" d="m 783.08635,477.82381 a 100,50 0 0 1 -111.09848,20.17442 100,50 0 0 1 -71.96301,-46.88343 100,50 0 0 1 67.71127,-48.44091 100,50 0 0 1 112.7868,17.67793 L 700,450 Z" inkscape:label="#path3740"/>
    <path style="display:inline;fill:none;stroke:#000000;stroke-width:10;marker-start:url(#Arrow2Lstart)" d="M 100,600 200,700 300,600 400,700" id="p1" inkscape:connector-curvature="0" inkscape:label="#path3746"/>
    <path style="display:inline;fill:none;stroke:#000000;stroke-width:10" d="m 500,600 c 0,0 0,100 100,100 100,0 0,-100 100,-100 100,0 100,100 100,100" id="p2" inkscape:connector-curvature="0" inkscape:label="#path3748"/>
    <path sodipodi:type="star" style="display:inline;fill:#ffff00;stroke:#008000;stroke-width:10" id="s1" sodipodi:sides="5" sodipodi:cx="189.03001" sodipodi:cy="847.93945" sodipodi:r1="69.364868" sodipodi:r2="34.682434" sodipodi:arg1="0.63598373" sodipodi:arg2="1.2643023" inkscape:flatsided="false" inkscape:rounded="0" inkscape:randomized="0" d="m 244.8332,889.14005 -45.33887,-8.13446 -32.40428,32.73753 -6.27415,-45.63352 -41.14872,-20.70184 41.46124,-20.06861 6.97297,-45.53197 31.89861,33.23044 45.45824,-7.43847 -21.74681,40.60615 z" inkscape:transform-center-x="6.4673011" inkscape:transform-center-y="-0.16430137"/>
    <use style="display:inline" x="0" y="0" xlink:href="#s1" inkscape:transform-center-x="6.4673011" inkscape:transform-center-y="-0.16430137" id="u1" transform="translate(200,2.9962152)" width="100%" height="100%" inkscape:label="#use3808"/>
  </g>
  <g inkscape:label="Slide1" inkscape:groupmode="layer" id="layer1" style="display:inline">
    <text xml:space="preserve" style="font-size:14.66666698px;line-height:1.25;font-family:sans-serif;fill:#000000;stroke:none" x="100" y="100" id="t1" inkscape:label="#text12"><tspan sodipodi:role="line" id="tspan10" x="100" y="100">Hello World</tspan></text>
    <flowRoot xml:space="preserve" id="t4" style="font-size:40px;line-height:1.25;font-family:sans-serif;fill:#000000;stroke:none" transform="matrix(0.26458333,0,0,0.26458333,372.02961,28.904505)" inkscape:label="#flowRoot14"><flowRegion id="flowRegion16"><rect id="rect18" width="264.5675" height="262.16187" x="105.71429" y="219.66254"/></flowRegion><flowPara id="flowPara20" style="font-size:55.43307114px">flow text which wraps</flowPara></flowRoot>    <text xml:space="preserve" style="font-size:14.66666698px;line-height:1.25;font-family:sans-serif;fill:#000000;stroke:none" x="200" y="100" id="t2" inkscape:label="#text3727"><tspan sodipodi:role="line" id="tspan3725" x="200" y="100" style="font-size:14.66666698px">UPPER</tspan></text>
    <text xml:space="preserve" style="font-size:10.58333302px;line-height:1.25;font-family:sans-serif;fill:#000000;stroke:none" x="300" y="100" id="t3" inkscape:label="#text3735"><tspan sodipodi:role="line" id="tspan3733" x="300" y="100" style="font-size:14.66666698px">Multi line</tspan><tspan sodipodi:role="line" x="300" y="118.33334" id="tspan3737" style="font-size:14.66666698px">text</tspan><tspan sodipodi:role="line" x="300" y="136.66667" id="tspan3739" style="font-size:14.66666698px">FOO</tspan></text>
    <g id="t5" transform="translate(445.71038,-129.64807)" inkscape:label="#g3772">
      <text id="text3762" y="229.64807" x="54.289616" style="font-size:10.58333302px;line-height:1.25;font-family:sans-serif;fill:#000000;stroke:none" xml:space="preserve"><tspan y="229.64807" x="54.289616" id="tspan3760" sodipodi:role="line" style="font-size:14.66666698px">Grouped</tspan></text>
      <text id="text3766" y="259.64807" x="54.289619" style="font-size:14.66666698px;line-height:1.25;font-family:sans-serif;fill:#000000;stroke:none" xml:space="preserve"><tspan y="259.64807" x="54.289619" id="tspan3764" sodipodi:role="line" style="font-size:14.66666698px">text</tspan></text>
    </g>
    <rect style="fill:#000080;stroke:none" id="r1" width="100" height="100" x="100" y="200" inkscape:label="#rect3732"/>
    <rect style="fill:none;stroke:#ff0000;stroke-width:16" id="r2" width="200" height="100" x="300" y="200" inkscape:label="#rect3734"/>
    <rect style="fill:#ffff00;stroke:#008000;stroke-width:16" id="r3" width="200" height="100" x="600" y="200" ry="38.950798" rx="44.943226" inkscape:label="#rect3744"/>
  </g>
  <script ns1:version="1.5.5" id="JessyInk">// dummy
</script>
</svg>